<svg width="24" height="24" viewBox="0 0 24 24" fill="none" xmlns="http://www.w3.org/2000/svg">
<path fill-rule="evenodd" clip-rule="evenodd" d="M1 7H17V1H1V7ZM17 8C17.5523 8 18 7.55228 18 7V1C18 0.447715 17.5523 0 17 0H1C0.447715 0 0 0.447715 0 1V7C0 7.55228 0.447715 8 1 8H17Z" transform="translate(3 3)" fill="#999999"/>
<path fill-rule="evenodd" clip-rule="evenodd" d="M1 7H6.99999L6.99999 1L1 1L1 7ZM6.99999 8C7.55228 8 7.99999 7.55228 7.99999 7V1C7.99999 0.447716 7.55228 0 6.99999 0H1C0.447715 0 0 0.447716 0 1V7C0 7.55228 0.447715 8 1 8H6.99999Z" transform="translate(3 13)" fill="#999999"/>
<path fill-rule="evenodd" clip-rule="evenodd" d="M0.999998 7H7L7 1L0.999998 1L0.999998 7ZM7 8C7.55229 8 8 7.55228 8 7V1C8 0.447716 7.55229 0 7 0H0.999998C0.447713 0 0 0.447716 0 1V7C0 7.55228 0.447713 8 0.999998 8H7Z" transform="translate(13 13)" fill="#999999"/>
</svg>
